…
The stock market is overflowing with data. There are many packages in R that allow us to get quick access to information on publicly traded companies. Imagine that you and a friend each purchased about $1,000 of stock in three different stocks at the start of October last year, and you want to compare your performance up to this week. Use the stock shares purchased and share prices to demonstrate how each of you fared over the period you were competing (assuming that you did not change your allocations).

## Data Wrangling


```r
# Use this R-Chunk to clean & wrangle your data!

stock_returns_monthly_multi <- stock_returns_monthly %>%
    tq_repeat_df(n = 2)
stock_returns_monthly_multi
```

```
## # A tibble: 1,704 x 4
## # Groups:   portfolio [2]
##    portfolio symbol date             Ra
##        <int> <chr>  <date>        <dbl>
##  1         1 TSLA   2020-10-01  0      
##  2         1 TSLA   2020-10-02 -0.0738 
##  3         1 TSLA   2020-10-05  0.0255 
##  4         1 TSLA   2020-10-06 -0.0275 
##  5         1 TSLA   2020-10-07  0.0273 
##  6         1 TSLA   2020-10-08  0.00146
##  7         1 TSLA   2020-10-09  0.0190 
##  8         1 TSLA   2020-10-12  0.0191 
##  9         1 TSLA   2020-10-13  0.00983
## 10         1 TSLA   2020-10-14  0.0328 
## # ... with 1,694 more rows
```
…
```r
portfolio_returns_monthly_multi <- stock_returns_monthly_multi %>%
    tq_portfolio(assets_col  = symbol, 
                 returns_col = Ra, 
                 weights     = weights_table, 
                 col_rename  = "Ra")
portfolio_returns_monthly_multi
```

```
## # A tibble: 568 x 3
## # Groups:   portfolio [2]
##    portfolio date              Ra
##        <int> <date>         <dbl>
##  1         1 2020-10-01  0       
##  2         1 2020-10-02 -0.0450  
##  3         1 2020-10-05  0.0221  
##  4         1 2020-10-06 -0.0277  
##  5         1 2020-10-07  0.0375  
##  6         1 2020-10-08  0.0630  
##  7         1 2020-10-09  0.00797 
##  8         1 2020-10-12  0.0796  
##  9         1 2020-10-13  0.000775
## 10         1 2020-10-14  0.0283  
## # ... with 558 more rows
```

```r
RaRb_multiple_portfolio <- left_join(portfolio_returns_monthly_multi, 
                                     baseline_returns_monthly,
                                     by = "date")
RaRb_multiple_portfolio
```

```
## # A tibble: 568 x 4
## # Groups:   portfolio [2]
##    portfolio date              Ra    Rb
##        <int> <date>         <dbl> <dbl>
##  1         1 2020-10-01  0           NA
##  2         1 2020-10-02 -0.0450      NA
##  3         1 2020-10-05  0.0221      NA
##  4         1 2020-10-06 -0.0277      NA
##  5         1 2020-10-07  0.0375      NA
##  6         1 2020-10-08  0.0630      NA
##  7         1 2020-10-09  0.00797     NA
##  8         1 2020-10-12  0.0796      NA
##  9         1 2020-10-13  0.000775    NA
## 10         1 2020-10-14  0.0283      NA
## # ... with 558 more rows
```
…
